Dr. U - Dynamic Time Warping and Hierarchical Clustering with {gapminder}
…
suppressPackageStartupMessages(library(tidyverse))
suppressPackageStartupMessages(library(dtwclust))
suppressPackageStartupMessages(library(factoextra))
suppressPackageStartupMessages(library(gapminder))
suppressPackageStartupMessages(library(ggrepel))

We’ll use dtwclust for hierarchical clustering using the dtw_basic as the distance measure. If you are not familiar with these methods, please read about dynamic time warping and hierachical clustering.

Data

We are going to use the gapminder dataset for comparing different countries. Let’s see the first few rows here:

gapminder

# A tibble: 1,704 x 6
   country     continent  year lifeExp      pop gdpPercap
   <fct>       <fct>     <int>   <dbl>    <int>     <dbl>
 1 Afghanistan Asia       1952    28.8  8425333      779.
 2 Afghanistan Asia       1957    30.3  9240934      821.
 3 Afghanistan Asia       1962    32.0 10267083      853.
 4 Afghanistan Asia       1967    34.0 11537966      836.
 5 Afghanistan Asia       1972    36.1 13079460      740.
 6 Afghanistan Asia       1977    38.4 14880372      786.
 7 Afghanistan Asia       1982    39.9 12881816      978.
 8 Afghanistan Asia       1987    40.8 13867957      852.
 9 Afghanistan Asia       1992    41.7 16317921      649.
10 Afghanistan Asia       1997    41.8 22227415      635.
# ... with 1,694 more rows
# i Use `print(n = ...)` to see more rows
…
df <- gapminder %>% 
  filter(continent == "Asia") %>% # countries in Asia only
  group_by(country) %>%           # scaling the vars for each country
  mutate(lifeExp = scale_this(lifeExp),
         pop = scale_this(pop),
         gdpPercap = scale_this(gdpPercap)
  ) %>%
  ungroup()

df

# A tibble: 396 x 6
   country     continent  year lifeExp     pop gdpPercap
   <fct>       <fct>     <int>   <dbl>   <dbl>     <dbl>
 1 Afghanistan Asia       1952  -1.70  -1.04      -0.215
 2 Afghanistan Asia       1957  -1.40  -0.925      0.168
 3 Afghanistan Asia       1962  -1.08  -0.781      0.466
 4 Afghanistan Asia       1967  -0.678 -0.602      0.310
 5 Afghanistan Asia       1972  -0.273 -0.386     -0.579
 6 Afghanistan Asia       1977   0.188 -0.133     -0.153
 7 Afghanistan Asia       1982   0.466 -0.414      1.62 
 8 Afghanistan Asia       1987   0.656 -0.275      0.460
 9 Afghanistan Asia       1992   0.823  0.0695    -1.42 
10 Afghanistan Asia       1997   0.840  0.900     -1.55 
# ... with 386 more rows
# i Use `print(n = ...)` to see more rows
…
We are now joining the estimated groups with the data:

Gps <- as.data.frame(cutree(clusters_gp, k = 8)) # num of clusters
colnames(Gps) <- "Gp"
Gps$country <- row.names(Gps)
row.names(Gps) <- NULL

## Getting the clustering info into the original data
gapminder_Asia <- gapminder %>% 
  filter(continent == "Asia") %>% 
  left_join(x=., y=Gps, by = "country")

gapminder_Asia

# A tibble: 396 x 7
   country     continent  year lifeExp      pop gdpPercap    Gp
   <chr>       <fct>     <int>   <dbl>    <int>     <dbl> <int>
 1 Afghanistan Asia       1952    28.8  8425333      779.     1
 2 Afghanistan Asia       1957    30.3  9240934      821.     1
 3 Afghanistan Asia       1962    32.0 10267083      853.     1
 4 Afghanistan Asia       1967    34.0 11537966      836.     1
 5 Afghanistan Asia       1972    36.1 13079460      740.     1
 6 Afghanistan Asia       1977    38.4 14880372      786.     1
 7 Afghanistan Asia       1982    39.9 12881816      978.     1
 8 Afghanistan Asia       1987    40.8 13867957      852.     1
 9 Afghanistan Asia       1992    41.7 16317921      649.     1
10 Afghanistan Asia       1997    41.8 22227415      635.     1
# ... with 386 more rows
# i Use `print(n = ...)` to see more rows
…
