Dr. U - Creating and combining multiple animations with gganimate and magick
…
df

# A tibble: 49 x 14
   Time_s ED_x_m LV_x_m LV_lengt~1 LV_wi~2 visua~3 visua~4   tau ED_sp~5 LV_sp~6
    <dbl>  <dbl>  <dbl>      <dbl>   <dbl>   <dbl>   <dbl> <dbl>   <dbl>   <dbl>
 1      1  4341.  3991.       5.39    2.29 0.00185 0.00128  55.1    22.4       0
 2      2  4335.  3991.       5.39    2.29 0.00189 0.00130  52.8    22.9       0
 3      3  4329.  3991.       5.39    2.29 0.00193 0.00133  50.7    23.5       0
 4      4  4322.  3991.       5.39    2.29 0.00197 0.00136  48.6    24.0       0
 5      5  4315.  3991.       5.39    2.29 0.00201 0.00138  46.9    24.3       0
 6      6  4308.  3991.       5.39    2.29 0.00205 0.00141  45.3    24.7       0
 7      7  4302.  3991.       5.39    2.29 0.00210 0.00145  43.7    25         0
 8      8  4294.  3991.       5.39    2.29 0.00215 0.00148  42.1    25.3       0
 9      9  4287.  3991.       5.39    2.29 0.00220 0.00152  40.6    25.7       0
10     10  4280.  3991.       5.39    2.29 0.00226 0.00156  39.1    26.0       0
# ... with 39 more rows, 4 more variables: LV_frspacing_m <dbl>,
#   ED_gas_pedal_pos <dbl>, ED_brake_pedal_force_kg <dbl>, tau_inv <dbl>, and
#   abbreviated variable names 1: LV_length_m, 2: LV_width_m,
#   3: visual_angle_W, 4: visual_angle_H, 5: ED_speed_mps, 6: LV_speed_mps
# i Use `print(n = ...)` to see more rows, and `colnames()` to see all variable names
…
