Dr. U - Transforming data to make it fit for analysis
…
df = df.clean_names()

df.columns

Index(['vehicle_id', 'frame_id', 'total_frames', 'global_time', 'local_x',
       'local_y', 'global_x', 'global_y', 'v_length', 'v_width', 'v_class',
       'v_vel', 'v_acc', 'lane_id', 'preceding', 'following', 'space_headway',
       'time_headway'],
      dtype='object')

df = DataFrame(load("data/df_raw.parquet"))

1048575×18 DataFrame
     Row │ Vehicle_ID  Frame_ID  Total_Frames  Global_Time    Local_X  Local_Y ⋯
         │ Int64       Int64     Int64         Int64          Float64  Float64 ⋯
─────────┼──────────────────────────────────────────────────────────────────────
       1 │          1        12           884  1113433136100   16.884    52.74 ⋯
       2 │          1        13           884  1113433136200   16.938    53.45
       3 │          1        14           884  1113433136300   16.991    54.19
       4 │          1        15           884  1113433136400   17.045    54.96
       5 │          1        16           884  1113433136500   17.098    55.77 ⋯
       6 │          1        17           884  1113433136600   17.151    56.61
       7 │          1        18           884  1113433136700   17.204    57.50
       8 │          1        19           884  1113433136800   17.257    58.43
    ⋮    │     ⋮          ⋮           ⋮              ⋮           ⋮         ⋮   ⋱
 1048569 │       2911      8586           731  1113433993500   53.639  1510.93 ⋯
 1048570 │       2911      8587           731  1113433993600   53.666  1513.01
 1048571 │       2911      8588           731  1113433993700   53.693  1515.0
 1048572 │       2911      8589           731  1113433993800   53.719  1516.88
 1048573 │       2911      8590           731  1113433993900   53.746  1518.68 ⋯
 1048574 │       2911      8591           731  1113433994000   53.772  1520.39
 1048575 │       2911      8592           731  1113433994100   53.799  1522.03
                                             13 columns and 1048560 rows omitted

df = @chain df begin
      @clean_names
     end

1048575×18 DataFrame
     Row │ vehicle_i_d  frame_i_d  total_frames  global_time    local_x  local ⋯
         │ Int64        Int64      Int64         Int64          Float64  Float ⋯
─────────┼──────────────────────────────────────────────────────────────────────
       1 │           1         12           884  1113433136100   16.884    52. ⋯
       2 │           1         13           884  1113433136200   16.938    53.
       3 │           1         14           884  1113433136300   16.991    54.
       4 │           1         15           884  1113433136400   17.045    54.
       5 │           1         16           884  1113433136500   17.098    55. ⋯
       6 │           1         17           884  1113433136600   17.151    56.
       7 │           1         18           884  1113433136700   17.204    57.
       8 │           1         19           884  1113433136800   17.257    58.
    ⋮    │      ⋮           ⋮           ⋮              ⋮           ⋮         ⋮ ⋱
 1048569 │        2911       8586           731  1113433993500   53.639  1510. ⋯
 1048570 │        2911       8587           731  1113433993600   53.666  1513.
 1048571 │        2911       8588           731  1113433993700   53.693  1515.
 1048572 │        2911       8589           731  1113433993800   53.719  1516.
 1048573 │        2911       8590           731  1113433993900   53.746  1518. ⋯
 1048574 │        2911       8591           731  1113433994000   53.772  1520.
 1048575 │        2911       8592           731  1113433994100   53.799  1522.
                                             13 columns and 1048560 rows omitted
…
df = @chain df begin
         @rename(vehicle_id = vehicle_i_d,
                 frame_id = frame_i_d,
                 lane_id = lane_i_d)
     end

1048575×18 DataFrame
     Row │ vehicle_id  frame_id  total_frames  global_time    local_x  local_y ⋯
         │ Int64       Int64     Int64         Int64          Float64  Float64 ⋯
─────────┼──────────────────────────────────────────────────────────────────────
       1 │          1        12           884  1113433136100   16.884    52.74 ⋯
       2 │          1        13           884  1113433136200   16.938    53.45
       3 │          1        14           884  1113433136300   16.991    54.19
       4 │          1        15           884  1113433136400   17.045    54.96
       5 │          1        16           884  1113433136500   17.098    55.77 ⋯
       6 │          1        17           884  1113433136600   17.151    56.61
       7 │          1        18           884  1113433136700   17.204    57.50
       8 │          1        19           884  1113433136800   17.257    58.43
    ⋮    │     ⋮          ⋮           ⋮              ⋮           ⋮         ⋮   ⋱
 1048569 │       2911      8586           731  1113433993500   53.639  1510.93 ⋯
 1048570 │       2911      8587           731  1113433993600   53.666  1513.01
 1048571 │       2911      8588           731  1113433993700   53.693  1515.0
 1048572 │       2911      8589           731  1113433993800   53.719  1516.88
 1048573 │       2911      8590           731  1113433993900   53.746  1518.68 ⋯
 1048574 │       2911      8591           731  1113433994000   53.772  1520.39
 1048575 │       2911      8592           731  1113433994100   53.799  1522.03
                                             13 columns and 1048560 rows omitted
…
df = leftjoin(
           df,
           df[:, [:frame_id, :vehicle_id, :local_y, :v_length, :v_width, :v_class, :v_vel, :v_acc]],
           on = [:frame_id => :frame_id, :preceding => :vehicle_id],
           makeunique = true, 
           renamecols = "" => "_preceding"
       )

1048575×24 DataFrame
     Row │ vehicle_id  frame_id  total_frames  global_time    local_x  local_y ⋯
         │ Int64       Int64     Int64         Int64          Float64  Float64 ⋯
─────────┼──────────────────────────────────────────────────────────────────────
       1 │         11        57           864  1113433140600   17.924   68.918 ⋯
       2 │         11        58           864  1113433140700   17.827   69.534
       3 │         11        59           864  1113433140800   17.73    70.158
       4 │         11        60           864  1113433140900   17.632   70.792
       5 │         11        61           864  1113433141000   17.533   71.434 ⋯
       6 │         11        62           864  1113433141100   17.433   72.083
       7 │         11        63           864  1113433141200   17.333   72.737
       8 │         11        64           864  1113433141300   17.233   73.398
    ⋮    │     ⋮          ⋮           ⋮              ⋮           ⋮        ⋮    ⋱
 1048569 │       2911      8381           731  1113433973000   61.556  928.234 ⋯
 1048570 │       2911      8382           731  1113433973100   60.848  931.051
 1048571 │       2911      8383           731  1113433973200   60.721  933.884
 1048572 │       2911      8384           731  1113433973300   60.667  936.733
 1048573 │       2911      8385           731  1113433973400   60.779  939.596 ⋯
 1048574 │       2911      8386           731  1113433973500   60.97   942.472
 1048575 │       2911      8387           731  1113433973600   60.618  945.36
                                             19 columns and 1048560 rows omitted
…
Rename the columns for preceding vehicles to match the column names with R:

df = @chain df begin
         @rename(preceding_local_y = local_y_preceding,
                 preceding_v_length =  v_length_preceding,
                 preceding_v_width = v_width_preceding,
                 preceding_v_class = v_class_preceding,
                 preceding_v_vel = v_vel_preceding,
                 preceding_v_acc = v_acc_preceding)
     end

1048575×24 DataFrame
     Row │ vehicle_id  frame_id  total_frames  global_time    local_x  local_y ⋯
         │ Int64       Int64     Int64         Int64          Float64  Float64 ⋯
─────────┼──────────────────────────────────────────────────────────────────────
       1 │         11        57           864  1113433140600   17.924   68.918 ⋯
       2 │         11        58           864  1113433140700   17.827   69.534
       3 │         11        59           864  1113433140800   17.73    70.158
       4 │         11        60           864  1113433140900   17.632   70.792
       5 │         11        61           864  1113433141000   17.533   71.434 ⋯
       6 │         11        62           864  1113433141100   17.433   72.083
       7 │         11        63           864  1113433141200   17.333   72.737
       8 │         11        64           864  1113433141300   17.233   73.398
    ⋮    │     ⋮          ⋮           ⋮              ⋮           ⋮        ⋮    ⋱
 1048569 │       2911      8381           731  1113433973000   61.556  928.234 ⋯
 1048570 │       2911      8382           731  1113433973100   60.848  931.051
 1048571 │       2911      8383           731  1113433973200   60.721  933.884
 1048572 │       2911      8384           731  1113433973300   60.667  936.733
 1048573 │       2911      8385           731  1113433973400   60.779  939.596 ⋯
 1048574 │       2911      8386           731  1113433973500   60.97   942.472
 1048575 │       2911      8387           731  1113433973600   60.618  945.36
                                             19 columns and 1048560 rows omitted
…
